\relax 
\providecommand\babel@aux[2]{}
\@nameuse{bbl@beforestart}
\catcode `:\active 
\catcode `;\active 
\catcode `!\active 
\catcode `?\active 
\babel@aux{french}{}
\@writefile{toc}{\contentsline {section}{\numberline {0.1}Exercice I: Pour commencer}{1}{}\protected@file@percent }
\@writefile{toc}{\contentsline {section}{\numberline {0.2}Exercice II: Précision des calculs numériques}{1}{}\protected@file@percent }
\@writefile{toc}{\contentsline {subsection}{\numberline {0.2.1}a.}{1}{}\protected@file@percent }
\@writefile{toc}{\contentsline {subsection}{\numberline {0.2.2}b.}{2}{}\protected@file@percent }
\@writefile{toc}{\contentsline {subsection}{\numberline {0.2.3}c.}{2}{}\protected@file@percent }
\@writefile{lof}{\contentsline {figure}{\numberline {1}{\ignorespaces Sorties du paquetage newtonTangeant mises dans un tableau.}}{2}{}\protected@file@percent }
\@writefile{toc}{\contentsline {section}{\numberline {0.3}Exercice III: Améliorons nos rationnels}{2}{}\protected@file@percent }
\@writefile{toc}{\contentsline {subsection}{\numberline {0.3.1}a.}{2}{}\protected@file@percent }
\@writefile{toc}{\contentsline {subsection}{\numberline {0.3.2}b.}{3}{}\protected@file@percent }
\@writefile{toc}{\contentsline {subsection}{\numberline {0.3.3}c.}{4}{}\protected@file@percent }
\@writefile{lof}{\contentsline {figure}{\numberline {2}{\ignorespaces Complexité sur les opérations de la classe Entier, n étant la taille du tableau représentant le plus grand entier.}}{4}{}\protected@file@percent }
\@writefile{toc}{\contentsline {subsection}{\numberline {0.3.4}d.}{4}{}\protected@file@percent }
\@writefile{toc}{\contentsline {subsection}{\numberline {0.3.5}e.}{4}{}\protected@file@percent }
\@writefile{toc}{\contentsline {section}{\numberline {0.4}Exercice IV: (bonus) Pour aller plus loin}{4}{}\protected@file@percent }
\@writefile{toc}{\contentsline {subsection}{\numberline {0.4.1}a.}{4}{}\protected@file@percent }
\@writefile{toc}{\contentsline {subsection}{\numberline {0.4.2}b.}{4}{}\protected@file@percent }
\gdef \@abspage@last{5}
