PWD /home/quentin/Documents/TPs/ProgObj/tp1-oop/doc
INPUT /usr/share/texmf-dist/web2c/texmf.cnf
INPUT /var/lib/texmf/web2c/pdftex/pdflatex.fmt
INPUT /home/quentin/Documents/TPs/ProgObj/tp1-oop/doc/rapport.tex
OUTPUT /home/quentin/Documents/TPs/ProgObj/tp1-oop/doc/rapport.log
INPUT /usr/share/texmf-dist/tex/latex/base/report.cls
INPUT /usr/share/texmf-dist/tex/latex/base/report.cls
INPUT /usr/share/texmf-dist/tex/latex/base/report.cls
INPUT /usr/share/texmf-dist/tex/latex/base/report.cls
INPUT /usr/share/texmf-dist/tex/latex/base/report.cls
INPUT /usr/share/texmf-dist/tex/latex/base/report.cls
INPUT /usr/share/texmf-dist/tex/latex/base/report.cls
INPUT /usr/share/texmf-dist/tex/latex/base/report.cls
INPUT /usr/share/texmf-dist/tex/latex/base/report.cls
INPUT /usr/share/texmf-dist/tex/latex/base/report.cls
INPUT /usr/share/texmf-dist/tex/latex/base/size10.clo
INPUT /usr/share/texmf-dist/tex/latex/base/size10.clo
INPUT /usr/share/texmf-dist/tex/latex/base/size10.clo
INPUT /usr/share/texmf-dist/tex/latex/base/size10.clo
INPUT /usr/share/texmf-dist/tex/latex/base/inputenc.sty
INPUT /usr/share/texmf-dist/tex/latex/base/inputenc.sty
INPUT /usr/share/texmf-dist/tex/latex/base/inputenc.sty
INPUT /usr/share/texmf-dist/tex/latex/base/inputenc.sty
INPUT /usr/share/texmf-dist/tex/latex/base/inputenc.sty
INPUT /usr/share/texmf-dist/tex/latex/base/inputenc.sty
INPUT /usr/share/texmf-dist/tex/latex/base/inputenc.sty
INPUT /usr/share/texmf-dist/tex/latex/base/inputenc.sty
INPUT /usr/share/texmf-dist/tex/latex/base/inputenc.sty
INPUT /usr/share/texmf-dist/tex/latex/base/inputenc.sty
INPUT /usr/share/texmf-dist/tex/generic/babel/babel.sty
INPUT /usr/share/texmf-dist/tex/generic/babel/babel.sty
INPUT /usr/share/texmf-dist/tex/generic/babel/babel.sty
INPUT /usr/share/texmf-dist/tex/generic/babel/babel.sty
INPUT /usr/share/texmf-dist/tex/generic/babel/babel.sty
INPUT /usr/share/texmf-dist/tex/generic/babel/babel.sty
INPUT /usr/share/texmf-dist/tex/generic/babel/babel.sty
INPUT /usr/share/texmf-dist/tex/generic/babel/babel.sty
INPUT /usr/share/texmf-dist/tex/generic/babel/babel.sty
INPUT /usr/share/texmf-dist/tex/generic/babel/babel.sty
INPUT /usr/share/texmf-dist/tex/generic/babel/babel.def
INPUT /usr/share/texmf-dist/tex/generic/babel/txtbabel.def
INPUT /usr/share/texmf-dist/tex/generic/babel-french/french.ldf
INPUT /usr/share/texmf-dist/tex/generic/babel-french/french.ldf
INPUT /usr/share/texmf-dist/tex/generic/babel-french/french.ldf
INPUT /usr/share/texmf-dist/tex/generic/babel-french/french.ldf
INPUT /usr/share/texmf-dist/tex/latex/carlisle/scalefnt.sty
INPUT /usr/share/texmf-dist/tex/latex/carlisle/scalefnt.sty
INPUT /usr/share/texmf-dist/tex/latex/carlisle/scalefnt.sty
INPUT /usr/share/texmf-dist/tex/latex/carlisle/scalefnt.sty
INPUT /usr/share/texmf-dist/tex/latex/carlisle/scalefnt.sty
INPUT /usr/share/texmf-dist/tex/latex/carlisle/scalefnt.sty
INPUT /usr/share/texmf-dist/tex/latex/carlisle/scalefnt.sty
INPUT /usr/share/texmf-dist/tex/latex/carlisle/scalefnt.sty
INPUT /usr/share/texmf-dist/tex/latex/carlisle/scalefnt.sty
INPUT /usr/share/texmf-dist/tex/latex/carlisle/scalefnt.sty
INPUT /usr/share/texmf-dist/tex/latex/graphics/keyval.sty
INPUT /usr/share/texmf-dist/tex/latex/graphics/keyval.sty
INPUT /usr/share/texmf-dist/tex/latex/graphics/keyval.sty
INPUT /usr/share/texmf-dist/tex/latex/graphics/keyval.sty
INPUT /usr/share/texmf-dist/tex/latex/graphics/keyval.sty
INPUT /usr/share/texmf-dist/tex/latex/graphics/keyval.sty
INPUT /usr/share/texmf-dist/tex/latex/graphics/keyval.sty
INPUT /usr/share/texmf-dist/tex/latex/graphics/keyval.sty
INPUT /usr/share/texmf-dist/tex/latex/graphics/keyval.sty
INPUT /usr/share/texmf-dist/tex/latex/graphics/keyval.sty
INPUT /usr/share/texmf-dist/tex/latex/base/fontenc.sty
INPUT /usr/share/texmf-dist/tex/latex/base/fontenc.sty
INPUT /usr/share/texmf-dist/tex/latex/base/fontenc.sty
INPUT /usr/share/texmf-dist/tex/latex/base/fontenc.sty
INPUT /usr/share/texmf-dist/tex/latex/base/fontenc.sty
INPUT /usr/share/texmf-dist/tex/latex/base/fontenc.sty
INPUT /usr/share/texmf-dist/tex/latex/base/fontenc.sty
INPUT /usr/share/texmf-dist/tex/latex/base/fontenc.sty
INPUT /usr/share/texmf-dist/tex/latex/base/fontenc.sty
INPUT /usr/share/texmf-dist/tex/latex/base/fontenc.sty
INPUT /usr/share/texmf-dist/fonts/map/fontname/texfonts.map
INPUT /usr/share/texmf-dist/fonts/tfm/jknappen/ec/ecrm1000.tfm
INPUT /usr/share/texmf-dist/tex/latex/amsmath/amsmath.sty
INPUT /usr/share/texmf-dist/tex/latex/amsmath/amsmath.sty
INPUT /usr/share/texmf-dist/tex/latex/amsmath/amsmath.sty
INPUT /usr/share/texmf-dist/tex/latex/amsmath/amsmath.sty
INPUT /usr/share/texmf-dist/tex/latex/amsmath/amsmath.sty
INPUT /usr/share/texmf-dist/tex/latex/amsmath/amsmath.sty
INPUT /usr/share/texmf-dist/tex/latex/amsmath/amsmath.sty
INPUT /usr/share/texmf-dist/tex/latex/amsmath/amsmath.sty
INPUT /usr/share/texmf-dist/tex/latex/amsmath/amsmath.sty
INPUT /usr/share/texmf-dist/tex/latex/amsmath/amsmath.sty
INPUT /usr/share/texmf-dist/tex/latex/amsmath/amsopn.sty
INPUT /usr/share/texmf-dist/tex/latex/amsmath/amsopn.sty
INPUT /usr/share/texmf-dist/tex/latex/amsmath/amstext.sty
INPUT /usr/share/texmf-dist/tex/latex/amsmath/amstext.sty
INPUT /usr/share/texmf-dist/tex/latex/amsmath/amstext.sty
INPUT /usr/share/texmf-dist/tex/latex/amsmath/amstext.sty
INPUT /usr/share/texmf-dist/tex/latex/amsmath/amstext.sty
INPUT /usr/share/texmf-dist/tex/latex/amsmath/amstext.sty
INPUT /usr/share/texmf-dist/tex/latex/amsmath/amstext.sty
INPUT /usr/share/texmf-dist/tex/latex/amsmath/amstext.sty
INPUT /usr/share/texmf-dist/tex/latex/amsmath/amstext.sty
INPUT /usr/share/texmf-dist/tex/latex/amsmath/amstext.sty
INPUT /usr/share/texmf-dist/tex/latex/amsmath/amsgen.sty
INPUT /usr/share/texmf-dist/tex/latex/amsmath/amsgen.sty
INPUT /usr/share/texmf-dist/tex/latex/amsmath/amsgen.sty
INPUT /usr/share/texmf-dist/tex/latex/amsmath/amsgen.sty
INPUT /usr/share/texmf-dist/tex/latex/amsmath/amsgen.sty
INPUT /usr/share/texmf-dist/tex/latex/amsmath/amsgen.sty
INPUT /usr/share/texmf-dist/tex/latex/amsmath/amsgen.sty
INPUT /usr/share/texmf-dist/tex/latex/amsmath/amsgen.sty
INPUT /usr/share/texmf-dist/tex/latex/amsmath/amsgen.sty
INPUT /usr/share/texmf-dist/tex/latex/amsmath/amsgen.sty
INPUT /usr/share/texmf-dist/tex/latex/amsmath/amsbsy.sty
INPUT /usr/share/texmf-dist/tex/latex/amsmath/amsbsy.sty
INPUT /usr/share/texmf-dist/tex/latex/amsmath/amsbsy.sty
INPUT /usr/share/texmf-dist/tex/latex/amsmath/amsbsy.sty
INPUT /usr/share/texmf-dist/tex/latex/amsmath/amsbsy.sty
INPUT /usr/share/texmf-dist/tex/latex/amsmath/amsbsy.sty
INPUT /usr/share/texmf-dist/tex/latex/amsmath/amsbsy.sty
INPUT /usr/share/texmf-dist/tex/latex/amsmath/amsbsy.sty
INPUT /usr/share/texmf-dist/tex/latex/amsmath/amsbsy.sty
INPUT /usr/share/texmf-dist/tex/latex/amsmath/amsbsy.sty
INPUT /usr/share/texmf-dist/tex/latex/amsmath/amsopn.sty
INPUT /usr/share/texmf-dist/tex/latex/amsmath/amsopn.sty
INPUT /usr/share/texmf-dist/tex/latex/amsmath/amsopn.sty
INPUT /usr/share/texmf-dist/tex/latex/amsmath/amsopn.sty
INPUT /usr/share/texmf-dist/tex/latex/amsmath/amsopn.sty
INPUT /usr/share/texmf-dist/tex/latex/amsmath/amsopn.sty
INPUT /usr/share/texmf-dist/tex/latex/amsmath/amsopn.sty
INPUT /usr/share/texmf-dist/tex/latex/amsmath/amsopn.sty
INPUT /usr/share/texmf-dist/tex/latex/amsmath/amsopn.sty
INPUT /usr/share/texmf-dist/tex/latex/amsmath/amsopn.sty
INPUT /usr/share/texmf-dist/tex/latex/amsfonts/amsfonts.sty
INPUT /usr/share/texmf-dist/tex/latex/amsfonts/amsfonts.sty
INPUT /usr/share/texmf-dist/tex/latex/amsfonts/amsfonts.sty
INPUT /usr/share/texmf-dist/tex/latex/amsfonts/amsfonts.sty
INPUT /usr/share/texmf-dist/tex/latex/amsfonts/amsfonts.sty
INPUT /usr/share/texmf-dist/tex/latex/amsfonts/amsfonts.sty
INPUT /usr/share/texmf-dist/tex/latex/amsfonts/amsfonts.sty
INPUT /usr/share/texmf-dist/tex/latex/amsfonts/amsfonts.sty
INPUT /usr/share/texmf-dist/tex/latex/amsfonts/amsfonts.sty
INPUT /usr/share/texmf-dist/tex/latex/amsfonts/amsfonts.sty
INPUT /usr/share/texmf-dist/tex/latex/amsfonts/amssymb.sty
INPUT /usr/share/texmf-dist/tex/latex/amsfonts/amssymb.sty
INPUT /usr/share/texmf-dist/tex/latex/amsfonts/amssymb.sty
INPUT /usr/share/texmf-dist/tex/latex/amsfonts/amssymb.sty
INPUT /usr/share/texmf-dist/tex/latex/amsfonts/amssymb.sty
INPUT /usr/share/texmf-dist/tex/latex/amsfonts/amssymb.sty
INPUT /usr/share/texmf-dist/tex/latex/amsfonts/amssymb.sty
INPUT /usr/share/texmf-dist/tex/latex/amsfonts/amssymb.sty
INPUT /usr/share/texmf-dist/tex/latex/amsfonts/amssymb.sty
INPUT /usr/share/texmf-dist/tex/latex/amsfonts/amssymb.sty
INPUT /usr/share/texmf-dist/tex/latex/float/float.sty
INPUT /usr/share/texmf-dist/tex/latex/float/float.sty
INPUT /usr/share/texmf-dist/tex/latex/float/float.sty
INPUT /usr/share/texmf-dist/tex/latex/float/float.sty
INPUT /usr/share/texmf-dist/tex/latex/float/float.sty
INPUT /usr/share/texmf-dist/tex/latex/float/float.sty
INPUT /usr/share/texmf-dist/tex/latex/float/float.sty
INPUT /usr/share/texmf-dist/tex/latex/float/float.sty
INPUT /usr/share/texmf-dist/tex/latex/float/float.sty
INPUT /usr/share/texmf-dist/tex/latex/float/float.sty
INPUT /usr/share/texmf-dist/tex/latex/listings/listings.sty
INPUT /usr/share/texmf-dist/tex/latex/listings/listings.sty
INPUT /usr/share/texmf-dist/tex/latex/listings/listings.sty
INPUT /usr/share/texmf-dist/tex/latex/listings/listings.sty
INPUT /usr/share/texmf-dist/tex/latex/listings/listings.sty
INPUT /usr/share/texmf-dist/tex/latex/listings/listings.sty
INPUT /usr/share/texmf-dist/tex/latex/listings/listings.sty
INPUT /usr/share/texmf-dist/tex/latex/listings/listings.sty
INPUT /usr/share/texmf-dist/tex/latex/listings/listings.sty
INPUT /usr/share/texmf-dist/tex/latex/listings/listings.sty
INPUT /usr/share/texmf-dist/tex/latex/listings/lstmisc.sty
INPUT /usr/share/texmf-dist/tex/latex/listings/lstmisc.sty
INPUT /usr/share/texmf-dist/tex/latex/listings/lstmisc.sty
INPUT /usr/share/texmf-dist/tex/latex/listings/lstmisc.sty
INPUT /usr/share/texmf-dist/tex/latex/listings/listings.cfg
INPUT /usr/share/texmf-dist/tex/latex/listings/listings.cfg
INPUT /usr/share/texmf-dist/tex/latex/listings/listings.cfg
INPUT /usr/share/texmf-dist/tex/latex/listings/listings.cfg
INPUT /usr/share/texmf-dist/tex/latex/tools/verbatim.sty
INPUT /usr/share/texmf-dist/tex/latex/tools/verbatim.sty
INPUT /usr/share/texmf-dist/tex/latex/tools/verbatim.sty
INPUT /usr/share/texmf-dist/tex/latex/tools/verbatim.sty
INPUT /usr/share/texmf-dist/tex/latex/tools/verbatim.sty
INPUT /usr/share/texmf-dist/tex/latex/tools/verbatim.sty
INPUT /usr/share/texmf-dist/tex/latex/tools/verbatim.sty
INPUT /usr/share/texmf-dist/tex/latex/tools/verbatim.sty
INPUT /usr/share/texmf-dist/tex/latex/tools/verbatim.sty
INPUT /usr/share/texmf-dist/tex/latex/tools/verbatim.sty
INPUT /usr/share/texmf-dist/tex/latex/xcolor/xcolor.sty
INPUT /usr/share/texmf-dist/tex/latex/xcolor/xcolor.sty
INPUT /usr/share/texmf-dist/tex/latex/xcolor/xcolor.sty
INPUT /usr/share/texmf-dist/tex/latex/xcolor/xcolor.sty
INPUT /usr/share/texmf-dist/tex/latex/xcolor/xcolor.sty
INPUT /usr/share/texmf-dist/tex/latex/xcolor/xcolor.sty
INPUT /usr/share/texmf-dist/tex/latex/xcolor/xcolor.sty
INPUT /usr/share/texmf-dist/tex/latex/xcolor/xcolor.sty
INPUT /usr/share/texmf-dist/tex/latex/xcolor/xcolor.sty
INPUT /usr/share/texmf-dist/tex/latex/xcolor/xcolor.sty
INPUT /usr/share/texmf-dist/tex/latex/graphics-cfg/color.cfg
INPUT /usr/share/texmf-dist/tex/latex/graphics-cfg/color.cfg
INPUT /usr/share/texmf-dist/tex/latex/graphics-cfg/color.cfg
INPUT /usr/share/texmf-dist/tex/latex/graphics-cfg/color.cfg
INPUT /usr/share/texmf-dist/tex/latex/graphics-def/pdftex.def
INPUT /usr/share/texmf-dist/tex/latex/graphics-def/pdftex.def
INPUT /usr/share/texmf-dist/tex/latex/graphics-def/pdftex.def
INPUT /usr/share/texmf-dist/tex/latex/graphics-def/pdftex.def
INPUT /usr/share/texmf-dist/tex/latex/tools/array.sty
INPUT /usr/share/texmf-dist/tex/latex/tools/array.sty
INPUT /usr/share/texmf-dist/tex/latex/tools/array.sty
INPUT /usr/share/texmf-dist/tex/latex/tools/array.sty
INPUT /usr/share/texmf-dist/tex/latex/tools/array.sty
INPUT /usr/share/texmf-dist/tex/latex/tools/array.sty
INPUT /usr/share/texmf-dist/tex/latex/tools/array.sty
INPUT /usr/share/texmf-dist/tex/latex/tools/array.sty
INPUT /usr/share/texmf-dist/tex/latex/tools/array.sty
INPUT /usr/share/texmf-dist/tex/latex/tools/array.sty
INPUT /usr/share/texmf-dist/tex/latex/amscls/amsthm.sty
INPUT /usr/share/texmf-dist/tex/latex/amscls/amsthm.sty
INPUT /usr/share/texmf-dist/tex/latex/amscls/amsthm.sty
INPUT /usr/share/texmf-dist/tex/latex/amscls/amsthm.sty
INPUT /usr/share/texmf-dist/tex/latex/amscls/amsthm.sty
INPUT /usr/share/texmf-dist/tex/latex/amscls/amsthm.sty
INPUT /usr/share/texmf-dist/tex/latex/amscls/amsthm.sty
INPUT /usr/share/texmf-dist/tex/latex/amscls/amsthm.sty
INPUT /usr/share/texmf-dist/tex/latex/amscls/amsthm.sty
INPUT /usr/share/texmf-dist/tex/latex/amscls/amsthm.sty
INPUT /usr/share/texmf-dist/tex/latex/tools/enumerate.sty
INPUT /usr/share/texmf-dist/tex/latex/tools/enumerate.sty
INPUT /usr/share/texmf-dist/tex/latex/tools/enumerate.sty
INPUT /usr/share/texmf-dist/tex/latex/tools/enumerate.sty
INPUT /usr/share/texmf-dist/tex/latex/tools/enumerate.sty
INPUT /usr/share/texmf-dist/tex/latex/tools/enumerate.sty
INPUT /usr/share/texmf-dist/tex/latex/tools/enumerate.sty
INPUT /usr/share/texmf-dist/tex/latex/tools/enumerate.sty
INPUT /usr/share/texmf-dist/tex/latex/tools/enumerate.sty
INPUT /usr/share/texmf-dist/tex/latex/tools/enumerate.sty
INPUT /usr/share/texmf-dist/tex/latex/geometry/geometry.sty
INPUT /usr/share/texmf-dist/tex/latex/geometry/geometry.sty
INPUT /usr/share/texmf-dist/tex/latex/geometry/geometry.sty
INPUT /usr/share/texmf-dist/tex/latex/geometry/geometry.sty
INPUT /usr/share/texmf-dist/tex/latex/geometry/geometry.sty
INPUT /usr/share/texmf-dist/tex/latex/geometry/geometry.sty
INPUT /usr/share/texmf-dist/tex/latex/geometry/geometry.sty
INPUT /usr/share/texmf-dist/tex/latex/geometry/geometry.sty
INPUT /usr/share/texmf-dist/tex/latex/geometry/geometry.sty
INPUT /usr/share/texmf-dist/tex/latex/geometry/geometry.sty
INPUT /usr/share/texmf-dist/tex/generic/iftex/ifvtex.sty
INPUT /usr/share/texmf-dist/tex/generic/iftex/ifvtex.sty
INPUT /usr/share/texmf-dist/tex/generic/iftex/ifvtex.sty
INPUT /usr/share/texmf-dist/tex/generic/iftex/ifvtex.sty
INPUT /usr/share/texmf-dist/tex/generic/iftex/ifvtex.sty
INPUT /usr/share/texmf-dist/tex/generic/iftex/ifvtex.sty
INPUT /usr/share/texmf-dist/tex/generic/iftex/ifvtex.sty
INPUT /usr/share/texmf-dist/tex/generic/iftex/ifvtex.sty
INPUT /usr/share/texmf-dist/tex/generic/iftex/ifvtex.sty
INPUT /usr/share/texmf-dist/tex/generic/iftex/ifvtex.sty
INPUT /usr/share/texmf-dist/tex/generic/iftex/iftex.sty
INPUT /usr/share/texmf-dist/tex/generic/iftex/iftex.sty
INPUT /usr/share/texmf-dist/tex/generic/iftex/iftex.sty
INPUT /usr/share/texmf-dist/tex/generic/iftex/iftex.sty
INPUT /usr/share/texmf-dist/tex/generic/iftex/iftex.sty
INPUT /usr/share/texmf-dist/tex/generic/iftex/iftex.sty
INPUT /usr/share/texmf-dist/tex/generic/iftex/iftex.sty
INPUT /usr/share/texmf-dist/tex/generic/iftex/iftex.sty
INPUT /usr/share/texmf-dist/tex/generic/iftex/iftex.sty
INPUT /usr/share/texmf-dist/tex/generic/iftex/iftex.sty
INPUT /usr/share/texmf-dist/tex/latex/graphics/graphicx.sty
INPUT /usr/share/texmf-dist/tex/latex/graphics/graphicx.sty
INPUT /usr/share/texmf-dist/tex/latex/graphics/graphicx.sty
INPUT /usr/share/texmf-dist/tex/latex/graphics/graphicx.sty
INPUT /usr/share/texmf-dist/tex/latex/graphics/graphicx.sty
INPUT /usr/share/texmf-dist/tex/latex/graphics/graphicx.sty
INPUT /usr/share/texmf-dist/tex/latex/graphics/graphicx.sty
INPUT /usr/share/texmf-dist/tex/latex/graphics/graphicx.sty
INPUT /usr/share/texmf-dist/tex/latex/graphics/graphicx.sty
INPUT /usr/share/texmf-dist/tex/latex/graphics/graphicx.sty
INPUT /usr/share/texmf-dist/tex/latex/graphics/graphics.sty
INPUT /usr/share/texmf-dist/tex/latex/graphics/graphics.sty
INPUT /usr/share/texmf-dist/tex/latex/graphics/graphics.sty
INPUT /usr/share/texmf-dist/tex/latex/graphics/graphics.sty
INPUT /usr/share/texmf-dist/tex/latex/graphics/graphics.sty
INPUT /usr/share/texmf-dist/tex/latex/graphics/graphics.sty
INPUT /usr/share/texmf-dist/tex/latex/graphics/graphics.sty
INPUT /usr/share/texmf-dist/tex/latex/graphics/graphics.sty
INPUT /usr/share/texmf-dist/tex/latex/graphics/graphics.sty
INPUT /usr/share/texmf-dist/tex/latex/graphics/graphics.sty
INPUT /usr/share/texmf-dist/tex/latex/graphics/trig.sty
INPUT /usr/share/texmf-dist/tex/latex/graphics/trig.sty
INPUT /usr/share/texmf-dist/tex/latex/graphics/trig.sty
INPUT /usr/share/texmf-dist/tex/latex/graphics/trig.sty
INPUT /usr/share/texmf-dist/tex/latex/graphics/trig.sty
INPUT /usr/share/texmf-dist/tex/latex/graphics/trig.sty
INPUT /usr/share/texmf-dist/tex/latex/graphics/trig.sty
INPUT /usr/share/texmf-dist/tex/latex/graphics/trig.sty
INPUT /usr/share/texmf-dist/tex/latex/graphics/trig.sty
INPUT /usr/share/texmf-dist/tex/latex/graphics/trig.sty
INPUT /usr/share/texmf-dist/tex/latex/graphics-cfg/graphics.cfg
INPUT /usr/share/texmf-dist/tex/latex/graphics-cfg/graphics.cfg
INPUT /usr/share/texmf-dist/tex/latex/graphics-cfg/graphics.cfg
INPUT /usr/share/texmf-dist/tex/latex/graphics-cfg/graphics.cfg
INPUT /usr/share/texmf-dist/tex/latex/l3backend/l3backend-pdftex.def
INPUT /usr/share/texmf-dist/tex/latex/l3backend/l3backend-pdftex.def
INPUT /usr/share/texmf-dist/tex/latex/l3backend/l3backend-pdftex.def
INPUT /usr/share/texmf-dist/tex/latex/l3backend/l3backend-pdftex.def
INPUT /usr/share/texmf-dist/tex/latex/l3backend/l3backend-pdftex.def
INPUT /usr/share/texmf-dist/tex/latex/l3backend/l3backend-pdftex.def
INPUT /usr/share/texmf-dist/tex/latex/l3backend/l3backend-pdftex.def
INPUT /usr/share/texmf-dist/tex/latex/l3backend/l3backend-pdftex.def
INPUT /usr/share/texmf-dist/tex/latex/l3backend/l3backend-pdftex.def
INPUT /usr/share/texmf-dist/tex/latex/l3backend/l3backend-pdftex.def
INPUT /home/quentin/Documents/TPs/ProgObj/tp1-oop/doc/rapport.aux
INPUT /home/quentin/Documents/TPs/ProgObj/tp1-oop/doc/rapport.aux
INPUT /home/quentin/Documents/TPs/ProgObj/tp1-oop/doc/rapport.aux
OUTPUT /home/quentin/Documents/TPs/ProgObj/tp1-oop/doc/rapport.aux
INPUT /usr/share/texmf-dist/tex/context/base/mkii/supp-pdf.mkii
INPUT /usr/share/texmf-dist/tex/context/base/mkii/supp-pdf.mkii
INPUT /usr/share/texmf-dist/tex/context/base/mkii/supp-pdf.mkii
INPUT /usr/share/texmf-dist/tex/context/base/mkii/supp-pdf.mkii
INPUT /usr/share/texmf-dist/tex/latex/epstopdf-pkg/epstopdf-base.sty
INPUT /usr/share/texmf-dist/tex/latex/epstopdf-pkg/epstopdf-base.sty
INPUT /usr/share/texmf-dist/tex/latex/epstopdf-pkg/epstopdf-base.sty
INPUT /usr/share/texmf-dist/tex/latex/epstopdf-pkg/epstopdf-base.sty
INPUT /usr/share/texmf-dist/tex/latex/epstopdf-pkg/epstopdf-base.sty
INPUT /usr/share/texmf-dist/tex/latex/epstopdf-pkg/epstopdf-base.sty
INPUT /usr/share/texmf-dist/tex/latex/epstopdf-pkg/epstopdf-base.sty
INPUT /usr/share/texmf-dist/tex/latex/epstopdf-pkg/epstopdf-base.sty
INPUT /usr/share/texmf-dist/tex/latex/epstopdf-pkg/epstopdf-base.sty
INPUT /usr/share/texmf-dist/tex/latex/epstopdf-pkg/epstopdf-base.sty
INPUT /usr/share/texmf-dist/tex/latex/latexconfig/epstopdf-sys.cfg
INPUT /usr/share/texmf-dist/tex/latex/latexconfig/epstopdf-sys.cfg
INPUT /usr/share/texmf-dist/tex/latex/latexconfig/epstopdf-sys.cfg
INPUT /usr/share/texmf-dist/tex/latex/latexconfig/epstopdf-sys.cfg
INPUT /usr/share/texmf-dist/fonts/tfm/jknappen/ec/ecrm1728.tfm
INPUT /usr/share/texmf-dist/fonts/tfm/jknappen/ec/ecrm1200.tfm
INPUT /usr/share/texmf-dist/fonts/tfm/public/cm/cmr12.tfm
INPUT /usr/share/texmf-dist/fonts/tfm/public/cm/cmr8.tfm
INPUT /usr/share/texmf-dist/fonts/tfm/public/cm/cmr6.tfm
INPUT /usr/share/texmf-dist/fonts/tfm/public/cm/cmmi12.tfm
INPUT /usr/share/texmf-dist/fonts/tfm/public/cm/cmmi8.tfm
INPUT /usr/share/texmf-dist/fonts/tfm/public/cm/cmmi6.tfm
INPUT /usr/share/texmf-dist/fonts/tfm/public/cm/cmsy10.tfm
INPUT /usr/share/texmf-dist/fonts/tfm/public/cm/cmsy8.tfm
INPUT /usr/share/texmf-dist/fonts/tfm/public/cm/cmsy6.tfm
INPUT /usr/share/texmf-dist/fonts/tfm/public/cm/cmex10.tfm
INPUT /usr/share/texmf-dist/fonts/tfm/public/amsfonts/cmextra/cmex8.tfm
INPUT /usr/share/texmf-dist/fonts/tfm/public/amsfonts/cmextra/cmex7.tfm
INPUT /usr/share/texmf-dist/tex/latex/amsfonts/umsa.fd
INPUT /usr/share/texmf-dist/tex/latex/amsfonts/umsa.fd
INPUT /usr/share/texmf-dist/tex/latex/amsfonts/umsa.fd
INPUT /usr/share/texmf-dist/tex/latex/amsfonts/umsa.fd
INPUT /usr/share/texmf-dist/fonts/tfm/public/amsfonts/symbols/msam10.tfm
INPUT /usr/share/texmf-dist/fonts/tfm/public/amsfonts/symbols/msam10.tfm
INPUT /usr/share/texmf-dist/fonts/tfm/public/amsfonts/symbols/msam7.tfm
INPUT /usr/share/texmf-dist/tex/latex/amsfonts/umsb.fd
INPUT /usr/share/texmf-dist/tex/latex/amsfonts/umsb.fd
INPUT /usr/share/texmf-dist/tex/latex/amsfonts/umsb.fd
INPUT /usr/share/texmf-dist/tex/latex/amsfonts/umsb.fd
INPUT /usr/share/texmf-dist/fonts/tfm/public/amsfonts/symbols/msbm10.tfm
INPUT /usr/share/texmf-dist/fonts/tfm/public/amsfonts/symbols/msbm10.tfm
INPUT /usr/share/texmf-dist/fonts/tfm/public/amsfonts/symbols/msbm7.tfm
OUTPUT /home/quentin/Documents/TPs/ProgObj/tp1-oop/doc/rapport.pdf
INPUT /var/lib/texmf/fonts/map/pdftex/updmap/pdftex.map
INPUT /usr/share/texmf-dist/fonts/tfm/jknappen/ec/ecrm1440.tfm
INPUT /usr/share/texmf-dist/fonts/tfm/jknappen/ec/ecbx1440.tfm
INPUT /usr/share/texmf-dist/tex/latex/listings/lstlang1.sty
INPUT /usr/share/texmf-dist/tex/latex/listings/lstlang1.sty
INPUT /usr/share/texmf-dist/tex/latex/listings/lstlang1.sty
INPUT /usr/share/texmf-dist/tex/latex/listings/lstlang1.sty
INPUT /usr/share/texmf-dist/tex/latex/listings/lstlang1.sty
INPUT /usr/share/texmf-dist/tex/latex/listings/lstlang1.sty
INPUT /usr/share/texmf-dist/tex/latex/listings/lstlang1.sty
INPUT /usr/share/texmf-dist/tex/latex/listings/lstlang1.sty
INPUT /usr/share/texmf-dist/tex/latex/base/t1cmtt.fd
INPUT /usr/share/texmf-dist/tex/latex/base/t1cmtt.fd
INPUT /usr/share/texmf-dist/tex/latex/base/t1cmtt.fd
INPUT /usr/share/texmf-dist/tex/latex/base/t1cmtt.fd
INPUT /usr/share/texmf-dist/fonts/tfm/jknappen/ec/ectt1000.tfm
INPUT /usr/share/texmf-dist/fonts/tfm/jknappen/ec/ectt0800.tfm
INPUT /usr/share/texmf-dist/fonts/tfm/jknappen/ec/ecrm0800.tfm
INPUT /usr/share/texmf-dist/fonts/tfm/jknappen/ec/ecrm0500.tfm
INPUT /usr/share/texmf-dist/tex/latex/listings/lstlang1.sty
INPUT /usr/share/texmf-dist/tex/latex/listings/lstlang1.sty
INPUT /usr/share/texmf-dist/tex/latex/listings/lstlang1.sty
INPUT /usr/share/texmf-dist/tex/latex/listings/lstlang1.sty
INPUT /usr/share/texmf-dist/tex/latex/listings/lstlang1.sty
INPUT /usr/share/texmf-dist/tex/latex/listings/lstlang1.sty
INPUT /usr/share/texmf-dist/tex/latex/listings/lstlang1.sty
INPUT /usr/share/texmf-dist/tex/latex/listings/lstlang1.sty
INPUT /usr/share/texmf-dist/tex/latex/listings/lstmisc.sty
INPUT /usr/share/texmf-dist/tex/latex/listings/lstmisc.sty
INPUT /usr/share/texmf-dist/tex/latex/listings/lstmisc.sty
INPUT /usr/share/texmf-dist/tex/latex/listings/lstmisc.sty
INPUT /usr/share/texmf-dist/fonts/tfm/jknappen/ec/ecbx1200.tfm
INPUT /usr/share/texmf-dist/fonts/tfm/public/amsfonts/cmextra/cmex7.tfm
INPUT /usr/share/texmf-dist/fonts/tfm/public/amsfonts/cmextra/cmex7.tfm
INPUT /usr/share/texmf-dist/fonts/tfm/public/amsfonts/symbols/msam10.tfm
INPUT /usr/share/texmf-dist/fonts/tfm/public/amsfonts/symbols/msam7.tfm
INPUT /usr/share/texmf-dist/fonts/tfm/public/amsfonts/symbols/msam5.tfm
INPUT /usr/share/texmf-dist/fonts/tfm/public/amsfonts/symbols/msbm10.tfm
INPUT /usr/share/texmf-dist/fonts/tfm/public/amsfonts/symbols/msbm7.tfm
INPUT /usr/share/texmf-dist/fonts/tfm/public/amsfonts/symbols/msbm5.tfm
INPUT /usr/share/texmf-dist/fonts/tfm/jknappen/ec/ecbx1000.tfm
INPUT /usr/share/texmf-dist/fonts/tfm/jknappen/ec/eccc1000.tfm
INPUT /home/quentin/Documents/TPs/ProgObj/tp1-oop/doc/rapport.aux
INPUT /usr/share/texmf-dist/fonts/enc/dvips/cm-super/cm-super-t1.enc
INPUT /usr/share/texmf-dist/fonts/type1/public/amsfonts/cm/cmmi10.pfb
INPUT /usr/share/texmf-dist/fonts/type1/public/amsfonts/cm/cmmi7.pfb
INPUT /usr/share/texmf-dist/fonts/type1/public/amsfonts/cm/cmr10.pfb
INPUT /usr/share/texmf-dist/fonts/type1/public/amsfonts/cm/cmr7.pfb
INPUT /usr/share/texmf-dist/fonts/type1/public/amsfonts/cm/cmsy10.pfb
INPUT /usr/share/texmf-dist/fonts/type1/public/cm-super/sfbx1000.pfb
INPUT /usr/share/texmf-dist/fonts/type1/public/cm-super/sfbx1200.pfb
INPUT /usr/share/texmf-dist/fonts/type1/public/cm-super/sfbx1440.pfb
INPUT /usr/share/texmf-dist/fonts/type1/public/cm-super/sfcc1000.pfb
INPUT /usr/share/texmf-dist/fonts/type1/public/cm-super/sfrm0500.pfb
INPUT /usr/share/texmf-dist/fonts/type1/public/cm-super/sfrm1000.pfb
INPUT /usr/share/texmf-dist/fonts/type1/public/cm-super/sfrm1200.pfb
INPUT /usr/share/texmf-dist/fonts/type1/public/cm-super/sfrm1728.pfb
INPUT /usr/share/texmf-dist/fonts/type1/public/cm-super/sftt0800.pfb
